{
  "fah": {
    "id": "flowers-are-happy",
    "image": {
      "name": "logo-flowers-are-happy.png",
      "title": "Flowers Are Happy",
      "alt": "Logo for \"Flowers Are Happy\": three roses heads atop two leaves—each rose also has the shape of a letter, and spell F.A.H.",
      "shape": "square logo"
    },
    "name": "Flowers Are Happy",
    "url": "http://www.flowersarehappy.com/",
    "description": "Personalized floral designs at happy prices. We offer fresh arrangements, quick hand delivery, and delightful results."
  },
  "na": {
    "id": "networking-austin",
    "image": {
      "name": "logo-networking-austin.png",
      "title": "Networking Austin",
      "alt": "A simplified Austin skyline with the word \"NETWORKING\" underneath, and the word \"Austin\" at the right.",
      "shape": "square logo"
    },
    "name": "Networking Austin",
    "url": "http://networkingaustin.com/",
    "description": "Networking Austin is a professional organization dedicated to providing valuable networking and referral opportunities."
  }
}